{
  "Peafishimea": {
    "id": 27,
    "tier": 10,
    "speed": 300,
    "hp": 800,
    "dmg": 160,
    "boosts": 3,
    "boost2": 0,
    "armour": 1,
    "armourpen": 0,
    "evo": [],
    "hitbox": { "x": 30, "y": 90 },
    "biome": { "pressure": true, "oxygen": false },
    "time": { "pressure": 10, "oxygen": 20 },
    "walk": false
  },
  "PeriscopeFish": {
    "id": 30,
    "tier": 10,
    "speed": 300,
    "hp": 700,
    "dmg": 160,
    "boosts": 3,
    "boost2": 0,
    "armour": 1,
    "armourpen": 0,
    "evo": [],
    "hitbox": { "x": 10, "y": 90 },
    "biome": { "pressure": true, "oxygen": false },
    "time": { "pressure": 10, "oxygen": 20 },
    "walk": false
  },
  "TriWebb": {
    "id": 32,
    "tier": 10,
    "speed": 300,
    "hp": 900,
    "dmg": 140,
    "boosts": 3,
    "boost2": 0.5,
    "armour": 1,
    "armourpen": 0,
    "evo": [],
    "hitbox": { "x": 55, "y": 55 },
    "biome": { "pressure": true, "oxygen": false },
    "time": { "pressure": 10, "oxygen": 20 },
    "walk": false,
    "immunity": {
      "slowed": 1,
      "poisoned": 1
    }
  }
}

